{
  "files": {
    "main.css": "/static/css/main.5366e3b3.chunk.css",
    "main.js": "/static/js/main.91a93961.chunk.js",
    "main.js.map": "/static/js/main.91a93961.chunk.js.map",
    "runtime~main.js": "/static/js/runtime~main.a8a9905a.js",
    "runtime~main.js.map": "/static/js/runtime~main.a8a9905a.js.map",
    "static/css/2.1cd01d09.chunk.css": "/static/css/2.1cd01d09.chunk.css",
    "static/js/2.a62fbb62.chunk.js": "/static/js/2.a62fbb62.chunk.js",
    "static/js/2.a62fbb62.chunk.js.map": "/static/js/2.a62fbb62.chunk.js.map",
    "index.html": "/index.html",
    "precache-manifest.92d7f88d8d985cf946dc268cc134816d.js": "/precache-manifest.92d7f88d8d985cf946dc268cc134816d.js",
    "service-worker.js": "/service-worker.js",
    "static/css/2.1cd01d09.chunk.css.map": "/static/css/2.1cd01d09.chunk.css.map",
    "static/css/main.5366e3b3.chunk.css.map": "/static/css/main.5366e3b3.chunk.css.map",
    "static/media/App.css": "/static/media/IRANSansWeb(FaNum)_UltraLight.b543a9ad.woff2",
    "static/media/onsenui.css": "/static/media/ionicons.dd4781d1.ttf",
    "static/media/support.png": "/static/media/support.16c5cda2.png"
  }
}